Mini-Project #01: Fiscal Characteristics of Major US Public Transit Systems – STA 9750 2024 Submission Material
…
Q4.2 What is the most used mode per metro area? The most used mode per metro area is the bus

most_used_mode_per_metro_area <- USAGE |>
  group_by(metro_area, Mode) |>
  summarise(total_upt = sum(UPT, na.rm = TRUE), .groups = "drop") |>
  group_by(metro_area) |>
  slice(which.max(total_upt)) |>
  select(metro_area, Mode, total_upt)
print(most_used_mode_per_metro_area)

# A tibble: 376 × 3
# Groups:   metro_area [376]
   metro_area                   Mode  total_upt
   <chr>                        <chr>     <dbl>
 1 Abilene, TX                  Bus     4811813
 2 Akron, OH                    Bus   133397482
 3 Albany, GA                   Bus    15828372
 4 Albany--Schenectady, NY      Bus   312961295
 5 Albuquerque, NM              Bus   200432456
 6 Alexandria, LA               Bus     6168051
 7 Allentown--Bethlehem, PA--NJ Bus   101405562
 8 Altoona, PA                  Bus    13053250
 9 Amarillo, TX                 Bus     4408831
10 Ames, IA                     Bus   109854287
# ℹ 366 more rows
…
