Mini-Project #02: The Business of Show Business – STA 9750 2024 Submission Material
…
Episodes_Basics_Ratings |>
  group_by(parentTconst) |>
  summarise(
    Average_Rating = mean(averageRating, na.rm = TRUE),
    Total_Episodes = n(),
    Average_Votes = mean(numVotes)
  ) |>
  filter(Total_Episodes > 12, Average_Votes >= 300) |>
  arrange(desc(Average_Rating)) |>
  mutate(parentTitle = TITLE_BASICS$originalTitle[match(parentTconst, TITLE_BASICS$tconst)]) |>
  ungroup()

# A tibble: 925 × 5
   parentTconst Average_Rating Total_Episodes Average_Votes parentTitle         
   <chr>                 <dbl>          <int>         <dbl> <chr>               
 1 tt2544148              9.65             25         1115. 20 Dakika           
 2 tt6162588              9.58             32          912. Cesur Ve Güzel      
 3 tt6384676              9.54             20         4187. Bu Sehir Arkandan G…
 4 tt4312318              9.35             26         4105. Seref Meselesi      
 5 tt3052000              9.34             54         4066. Günesi Beklerken    
 6 tt22727518             9.3              16         7449. Bambaska Biri       
 7 tt14899624             9.27             16         1445. Zeytin Agaci        
 8 tt13661118             9.26             14         4409. Not Me              
 9 tt9471962              9.18             19         4619. Halka               
10 tt27460313             9.14             40          427. Yu Gu Yao           
# ℹ 915 more rows
…
The following table shows total “successes” per genre given our definition:

MODIFIED_TITLE_RATINGS |>
  mutate(parentTconst = ifelse(titleType == "tvSeries", parentTconst, tconst)) |>
  distinct(parentTconst, .keep_all = TRUE) |>
  separate_rows(genres, sep = ",") |>
  mutate(genres = trimws(genres)) |>
  filter(startYear >= 2010) |>
  group_by(genres) |>
  summarise(total_title_count = n()) |>
  arrange(desc(total_title_count)) |>
  ungroup()

# A tibble: 27 × 2
   genres    total_title_count
   <chr>                 <int>
 1 Drama                 12799
 2 Action                 6970
 3 Comedy                 5557
 4 Adventure              5435
 5 Crime                  5081
 6 Animation              3904
 7 Mystery                2571
 8 Romance                1965
 9 Fantasy                1964
10 Horror                 1487
# ℹ 17 more rows

The following table shows total title count by genre using our initial data (not taking our success measure into consideration):

TITLE_BASICS |>
  separate_rows(genres, sep = ",") |>
  group_by(genres) |>
  summarise(total_title_count = n()) |>
  arrange(desc(total_title_count)) |>
  ungroup()

# A tibble: 29 × 2
   genres      total_title_count
   <chr>                   <int>
 1 Drama                  177185
 2 Comedy                 126366
 3 Action                  72347
 4 Crime                   60989
 5 Adventure               57111
 6 Animation               47568
 7 Romance                 41456
 8 Mystery                 33202
 9 Thriller                27860
10 Documentary             27580
# ℹ 19 more rows
…
